\relax 
\providecommand\hyper@newdestlabel[2]{}
\providecommand\HyperFirstAtBeginDocument{\AtBeginDocument}
\HyperFirstAtBeginDocument{\ifx\hyper@anchor\@undefined
\global\let\oldcontentsline\contentsline
\gdef\contentsline#1#2#3#4{\oldcontentsline{#1}{#2}{#3}}
\global\let\oldnewlabel\newlabel
\gdef\newlabel#1#2{\newlabelxx{#1}#2}
\gdef\newlabelxx#1#2#3#4#5#6{\oldnewlabel{#1}{{#2}{#3}}}
\AtEndDocument{\ifx\hyper@anchor\@undefined
\let\contentsline\oldcontentsline
\let\newlabel\oldnewlabel
\fi}
\fi}
\global\let\hyper@last\relax 
\gdef\HyperFirstAtBeginDocument#1{#1}
\providecommand\HyField@AuxAddToFields[1]{}
\providecommand\HyField@AuxAddToCoFields[2]{}
\citation{burki2020new}
\citation{schuettengruber2017genome}
\citation{sebe2016dynamic}
\citation{cui2008histone}
\citation{guelman2009double}
\citation{mitchell2019interpro}
\citation{yuan2002acetyltransferase}
\citation{uniprot2019uniprot}
\citation{cui2008histone}
\citation{kramer2016regulation}
\citation{mitchell2019interpro}
\citation{spyropoulou2014role}
\citation{mitchell2019interpro}
\citation{altschul1990basic}
\@writefile{toc}{\contentsline {section}{\numberline {1}Introduction}{2}{section.1}}
\newlabel{sec:Introduction}{{1}{2}{Introduction}{section.1}{}}
\citation{huson2006application}
\citation{bandelt1992split}
\@writefile{toc}{\contentsline {section}{\numberline {2}Methods}{3}{section.2}}
\newlabel{sec:Methods}{{2}{3}{Methods}{section.2}{}}
\@writefile{toc}{\contentsline {subsection}{\numberline {2.1}Blast}{3}{subsection.2.1}}
\newlabel{subsec:blast_methods}{{2.1}{3}{Blast}{subsection.2.1}{}}
\@writefile{toc}{\contentsline {subsection}{\numberline {2.2}HMMER}{3}{subsection.2.2}}
\newlabel{subsec:hmmsearch}{{2.2}{3}{HMMER}{subsection.2.2}{}}
\@writefile{toc}{\contentsline {subsection}{\numberline {2.3}Splitstree}{3}{subsection.2.3}}
\newlabel{subsec:Estimating phylogenetic trees and networks using SplitsTree 4.16.1}{{2.3}{3}{Splitstree}{subsection.2.3}{}}
\@writefile{toc}{\contentsline {section}{\numberline {3}Results}{4}{section.3}}
\newlabel{sec:Results}{{3}{4}{Results}{section.3}{}}
\@writefile{toc}{\contentsline {subsection}{\numberline {3.1}Comparison HMMER and BLAST Hits}{4}{subsection.3.1}}
\newlabel{sub:comp_hmm_blast}{{3.1}{4}{Comparison HMMER and BLAST Hits}{subsection.3.1}{}}
\newlabel{par:EHMT}{{3.1}{4}{EHMT1/2}{section*.3}{}}
\@writefile{toc}{\contentsline {paragraph}{EHMT1/2}{4}{section*.3}}
\newlabel{par:KAT2A}{{3.1}{4}{KAT2A}{section*.4}{}}
\@writefile{toc}{\contentsline {paragraph}{KAT2A}{4}{section*.4}}
\newlabel{par:SETD1B}{{3.1}{5}{SETD1B}{section*.5}{}}
\@writefile{toc}{\contentsline {paragraph}{SETD1B}{5}{section*.5}}
\newlabel{par:SjUV39H1}{{3.1}{5}{SUV39H1}{section*.6}{}}
\@writefile{toc}{\contentsline {paragraph}{SUV39H1}{5}{section*.6}}
\newlabel{par:P300}{{3.1}{5}{P300}{section*.7}{}}
\@writefile{toc}{\contentsline {paragraph}{P300}{5}{section*.7}}
\@writefile{toc}{\contentsline {subsection}{\numberline {3.2}Comparison of Taxa and Protein evolution}{5}{subsection.3.2}}
\@writefile{toc}{\contentsline {paragraph}{EHMT1/2}{5}{section*.8}}
\@writefile{toc}{\contentsline {paragraph}{SETD1B}{5}{section*.9}}
\@writefile{toc}{\contentsline {paragraph}{KAT2A}{5}{section*.10}}
\citation{schuettengruber2017genome}
\@writefile{toc}{\contentsline {paragraph}{CBP}{6}{section*.11}}
\@writefile{toc}{\contentsline {paragraph}{P300}{6}{section*.12}}
\@writefile{toc}{\contentsline {section}{\numberline {4}Discussion and Outlook}{6}{section.4}}
\newlabel{sec:Discussion and Outlook}{{4}{6}{Discussion and Outlook}{section.4}{}}
\@writefile{toc}{\contentsline {section}{\numberline {A}Figures}{8}{appendix.A}}
\newlabel{sec:Figures}{{A}{8}{Figures}{appendix.A}{}}
\@writefile{lof}{\contentsline {figure}{\numberline {1}{\ignorespaces CBP HMMER\relax }}{8}{figure.caption.13}}
\providecommand*\caption@xref[2]{\@setref\relax\@undefined{#1}}
\newlabel{fig:CBP_cladogramHmmer}{{1}{8}{CBP HMMER\relax }{figure.caption.13}{}}
\newlabel{fig:EHMT1_cladogramBlast}{{2a}{9}{EHMT1 BLAST\relax }{figure.caption.14}{}}
\newlabel{sub@fig:EHMT1_cladogramBlast}{{a}{9}{EHMT1 BLAST\relax }{figure.caption.14}{}}
\newlabel{fig:EHMT1_cladogramHmmer}{{2b}{9}{EHMT1 HMMER\relax }{figure.caption.14}{}}
\newlabel{sub@fig:EHMT1_cladogramHmmer}{{b}{9}{EHMT1 HMMER\relax }{figure.caption.14}{}}
\@writefile{lof}{\contentsline {figure}{\numberline {2}{\ignorespaces EHMT1\relax }}{9}{figure.caption.14}}
\newlabel{fig:EHMT2_cladogramBlast}{{3a}{10}{EHMT2 BLAST\relax }{figure.caption.15}{}}
\newlabel{sub@fig:EHMT2_cladogramBlast}{{a}{10}{EHMT2 BLAST\relax }{figure.caption.15}{}}
\newlabel{fig:EHMT2_cladogramHmmer}{{3b}{10}{EHMT2 HMMER\relax }{figure.caption.15}{}}
\newlabel{sub@fig:EHMT2_cladogramHmmer}{{b}{10}{EHMT2 HMMER\relax }{figure.caption.15}{}}
\@writefile{lof}{\contentsline {figure}{\numberline {3}{\ignorespaces EHMT2\relax }}{10}{figure.caption.15}}
\newlabel{fig:SETD1B_cladogramBlast}{{4a}{11}{SETD1B BLAST\relax }{figure.caption.16}{}}
\newlabel{sub@fig:SETD1B_cladogramBlast}{{a}{11}{SETD1B BLAST\relax }{figure.caption.16}{}}
\newlabel{fig:SETD1B_cladogramHmmer}{{4b}{11}{SETD1B HMMER\relax }{figure.caption.16}{}}
\newlabel{sub@fig:SETD1B_cladogramHmmer}{{b}{11}{SETD1B HMMER\relax }{figure.caption.16}{}}
\@writefile{lof}{\contentsline {figure}{\numberline {4}{\ignorespaces SETD1B\relax }}{11}{figure.caption.16}}
\newlabel{fig:SETD1B}{{4}{11}{SETD1B\relax }{figure.caption.16}{}}
\newlabel{fig:KAT2A_cladogramBlast}{{5a}{12}{KAT2A BLAST\relax }{figure.caption.17}{}}
\newlabel{sub@fig:KAT2A_cladogramBlast}{{a}{12}{KAT2A BLAST\relax }{figure.caption.17}{}}
\newlabel{fig:KAT2A_cladogramHmmer}{{5b}{12}{KAT2A HMMER\relax }{figure.caption.17}{}}
\newlabel{sub@fig:KAT2A_cladogramHmmer}{{b}{12}{KAT2A HMMER\relax }{figure.caption.17}{}}
\@writefile{lof}{\contentsline {figure}{\numberline {5}{\ignorespaces KAT2A\relax }}{12}{figure.caption.17}}
\newlabel{fig:KAT2A}{{5}{12}{KAT2A\relax }{figure.caption.17}{}}
\newlabel{fig:SUV39H1_cladogramBlast}{{6a}{13}{SUV39H1 BLAST\relax }{figure.caption.18}{}}
\newlabel{sub@fig:SUV39H1_cladogramBlast}{{a}{13}{SUV39H1 BLAST\relax }{figure.caption.18}{}}
\@writefile{lof}{\contentsline {figure}{\numberline {6}{\ignorespaces SUV39H1\relax }}{13}{figure.caption.18}}
\newlabel{fig:SUV39H1}{{6}{13}{SUV39H1\relax }{figure.caption.18}{}}
\newlabel{fig:p300_cladogramBlast}{{7a}{14}{P300 BLAST\relax }{figure.caption.19}{}}
\newlabel{sub@fig:p300_cladogramBlast}{{a}{14}{P300 BLAST\relax }{figure.caption.19}{}}
\newlabel{fig:P300_cladogramHmmer}{{7b}{14}{P300 Hmmer\relax }{figure.caption.19}{}}
\newlabel{sub@fig:P300_cladogramHmmer}{{b}{14}{P300 Hmmer\relax }{figure.caption.19}{}}
\@writefile{lof}{\contentsline {figure}{\numberline {7}{\ignorespaces P300\relax }}{14}{figure.caption.19}}
\bibstyle{unsrt}
\bibdata{bib}
\bibcite{burki2020new}{1}
\bibcite{schuettengruber2017genome}{2}
\bibcite{sebe2016dynamic}{3}
\bibcite{cui2008histone}{4}
\bibcite{guelman2009double}{5}
\bibcite{mitchell2019interpro}{6}
\bibcite{yuan2002acetyltransferase}{7}
\bibcite{uniprot2019uniprot}{8}
\bibcite{kramer2016regulation}{9}
\bibcite{spyropoulou2014role}{10}
\bibcite{altschul1990basic}{11}
\bibcite{huson2006application}{12}
\bibcite{bandelt1992split}{13}
