\contentsline {figure}{\numberline {1}{\ignorespaces CBP HMMER\relax }}{8}{figure.caption.13}
\contentsline {figure}{\numberline {2}{\ignorespaces EHMT1\relax }}{9}{figure.caption.14}
\contentsline {figure}{\numberline {3}{\ignorespaces EHMT2\relax }}{10}{figure.caption.15}
\contentsline {figure}{\numberline {4}{\ignorespaces SETD1B\relax }}{11}{figure.caption.16}
\contentsline {figure}{\numberline {5}{\ignorespaces KAT2A\relax }}{12}{figure.caption.17}
\contentsline {figure}{\numberline {6}{\ignorespaces SUV39H1\relax }}{13}{figure.caption.18}
\contentsline {figure}{\numberline {7}{\ignorespaces P300\relax }}{14}{figure.caption.19}
